{"componentChunkName":"component---node-modules-gatsby-theme-buzzing-src-gatsby-theme-timeline-templates-posts-query-js","path":"/en/page/52","result":{"data":{"site":{"siteMetadata":{"title":"谷歌全球新闻头条","author":"Buzzing.cc","description":"用中文浏览谷歌全球新闻(西方媒体)头条","keywords":["buzzing","西方媒体","国外新闻","世界新闻","突发新闻"],"siteUrl":"https://news.buzzing.cc","telegram":"@buzzingcc","iconUrl":"https://news.buzzing.cc/avatar.png","defaultSocialImageUrl":null,"social":[{"name":"Google News","url":"https://news.google.com/topics/CAAqJggKIiBDQkFTRWdvSUwyMHZNRGx1YlY4U0FtVnVHZ0pWVXlnQVAB","external":true},{"name":"Buzzing","url":"https://www.buzzing.cc/","external":true}],"menuLinks":[{"name":"RSS","url":"/rss.xml","external":null}],"disqus":null,"utterances":null}},"tagsGroup":{"group":[{"fieldValue":"4029tv","totalCount":1},{"fieldValue":"9News.com KUSA","totalCount":1},{"fieldValue":"ABC News","totalCount":17},{"fieldValue":"AL.com","totalCount":1},{"fieldValue":"ATP Tour","totalCount":1},{"fieldValue":"Al Jazeera English","totalCount":3},{"fieldValue":"Alabama's News Leader","totalCount":2},{"fieldValue":"Associated Press","totalCount":27},{"fieldValue":"Atlanta Journal Constitution","totalCount":1},{"fieldValue":"Axios","totalCount":14},{"fieldValue":"BBC News","totalCount":180},{"fieldValue":"Baltimore Sun","totalCount":1},{"fieldValue":"Bavarian Football Works","totalCount":4},{"fieldValue":"Bay News 9","totalCount":1},{"fieldValue":"Bloomberg","totalCount":41},{"fieldValue":"Bring Me The News","totalCount":1},{"fieldValue":"Business Insider","totalCount":33},{"fieldValue":"BuzzFeed News","totalCount":9},{"fieldValue":"CBC News: The National","totalCount":1},{"fieldValue":"CBS Evening News","totalCount":5},{"fieldValue":"CBS New York","totalCount":2},{"fieldValue":"CBS News","totalCount":88},{"fieldValue":"CBS Sports","totalCount":1},{"fieldValue":"CBS This Morning","totalCount":5},{"fieldValue":"CNBC","totalCount":89},{"fieldValue":"CNET","totalCount":3},{"fieldValue":"CNN","totalCount":48},{"fieldValue":"CNN ","totalCount":202},{"fieldValue":"Channel 4 News","totalCount":1},{"fieldValue":"CyclingTips","totalCount":1},{"fieldValue":"Cyclingnews.com","totalCount":3},{"fieldValue":"Daily Beast","totalCount":3},{"fieldValue":"Daily Express","totalCount":1},{"fieldValue":"Daily Herald","totalCount":1},{"fieldValue":"Deadline","totalCount":2},{"fieldValue":"Deccan Herald","totalCount":1},{"fieldValue":"Deseret News","totalCount":1},{"fieldValue":"E! NEWS","totalCount":1},{"fieldValue":"ESPN","totalCount":6},{"fieldValue":"ESPN UK","totalCount":1},{"fieldValue":"ESPNcricinfo","totalCount":1},{"fieldValue":"East Idaho News","totalCount":1},{"fieldValue":"Eurosport.com","totalCount":1},{"fieldValue":"FOX 10 News Phoenix","totalCount":1},{"fieldValue":"FOX 13 Tampa Bay","totalCount":1},{"fieldValue":"FOX 31 Denver","totalCount":1},{"fieldValue":"FOX 5 Atlanta","totalCount":1},{"fieldValue":"FRANCE 24","totalCount":1},{"fieldValue":"Fox 59","totalCount":1},{"fieldValue":"Fox News","totalCount":220},{"fieldValue":"Goal.com","totalCount":2},{"fieldValue":"Good Morning America","totalCount":3},{"fieldValue":"Guardian News","totalCount":4},{"fieldValue":"HYPEBEAST","totalCount":1},{"fieldValue":"Haaretz","totalCount":15},{"fieldValue":"HarpersBAZAAR.com","totalCount":2},{"fieldValue":"Hawaii News Now","totalCount":1},{"fieldValue":"Honolulu Star-Advertiser","totalCount":3},{"fieldValue":"HuffPost","totalCount":1},{"fieldValue":"KABC-TV","totalCount":7},{"fieldValue":"KCRA Sacramento","totalCount":3},{"fieldValue":"KHON2","totalCount":1},{"fieldValue":"KHON2 News","totalCount":1},{"fieldValue":"KHOU 11","totalCount":1},{"fieldValue":"KING5.com","totalCount":1},{"fieldValue":"KOB","totalCount":1},{"fieldValue":"KOCO Oklahoma City","totalCount":3},{"fieldValue":"KOMO News","totalCount":5},{"fieldValue":"KPRC Click2Houston","totalCount":1},{"fieldValue":"KSL.com","totalCount":1},{"fieldValue":"KTLA Los Angeles","totalCount":2},{"fieldValue":"KTNV Las Vegas","totalCount":1},{"fieldValue":"KTVI Fox 2 St. Louis","totalCount":1},{"fieldValue":"KXAN.com","totalCount":1},{"fieldValue":"KY3","totalCount":1},{"fieldValue":"Livescience.com","totalCount":1},{"fieldValue":"Los Angeles Times","totalCount":16},{"fieldValue":"MARCA.com","totalCount":1},{"fieldValue":"Miami Herald","totalCount":1},{"fieldValue":"Minneapolis Star Tribune","totalCount":1},{"fieldValue":"NBC Connecticut","totalCount":1},{"fieldValue":"NBC News","totalCount":113},{"fieldValue":"NBC Sports","totalCount":1},{"fieldValue":"NJ.com","totalCount":5},{"fieldValue":"NPR","totalCount":119},{"fieldValue":"New York Daily News","totalCount":5},{"fieldValue":"New York Post ","totalCount":105},{"fieldValue":"Newsmax","totalCount":1},{"fieldValue":"Newsweek","totalCount":13},{"fieldValue":"OregonLive","totalCount":1},{"fieldValue":"POLITICO","totalCount":43},{"fieldValue":"Page Six","totalCount":3},{"fieldValue":"Politico","totalCount":1},{"fieldValue":"Q13 FOX (Seattle)","totalCount":1},{"fieldValue":"RT","totalCount":1},{"fieldValue":"Reno Gazette Journal","totalCount":1},{"fieldValue":"Reuters","totalCount":67},{"fieldValue":"Reuters India","totalCount":8},{"fieldValue":"Reuters UK","totalCount":12},{"fieldValue":"SF Gate","totalCount":1},{"fieldValue":"STLtoday.com","totalCount":1},{"fieldValue":"Sacramento Bee","totalCount":1},{"fieldValue":"San Francisco Chronicle","totalCount":1},{"fieldValue":"ScienceAlert","totalCount":1},{"fieldValue":"Sky News","totalCount":1},{"fieldValue":"Slate","totalCount":4},{"fieldValue":"TMZ","totalCount":1},{"fieldValue":"TODAY","totalCount":1},{"fieldValue":"The Associated Press","totalCount":97},{"fieldValue":"The Daily Beast","totalCount":14},{"fieldValue":"The Detroit News","totalCount":1},{"fieldValue":"The Guardian","totalCount":86},{"fieldValue":"The Hill","totalCount":67},{"fieldValue":"The Intercept","totalCount":2},{"fieldValue":"The Japan Times","totalCount":1},{"fieldValue":"The Jerusalem Post","totalCount":19},{"fieldValue":"The Mercury News","totalCount":2},{"fieldValue":"The New York Times","totalCount":207},{"fieldValue":"The Seattle Times","totalCount":2},{"fieldValue":"The Times of Israel","totalCount":17},{"fieldValue":"The Verge","totalCount":1},{"fieldValue":"The Wall Street Journal","totalCount":88},{"fieldValue":"The Washington Post","totalCount":102},{"fieldValue":"This Morning","totalCount":1},{"fieldValue":"Thomson Reuters Foundation","totalCount":1},{"fieldValue":"TownandCountrymag.com","totalCount":1},{"fieldValue":"USA TODAY","totalCount":43},{"fieldValue":"Vatican News","totalCount":1},{"fieldValue":"Vox.com","totalCount":7},{"fieldValue":"Vulture","totalCount":1},{"fieldValue":"WAPT Jackson","totalCount":1},{"fieldValue":"WBAL TV Baltimore","totalCount":1},{"fieldValue":"WBAY","totalCount":1},{"fieldValue":"WCVB Boston","totalCount":2},{"fieldValue":"WDIV ClickOnDetroit","totalCount":2},{"fieldValue":"WDSU New Orleans","totalCount":1},{"fieldValue":"WESH 2 News","totalCount":1},{"fieldValue":"WGN TV Chicago","totalCount":3},{"fieldValue":"WJW FOX 8 News Cleveland","totalCount":3},{"fieldValue":"WJXT News4JAX ","totalCount":1},{"fieldValue":"WLBT","totalCount":1},{"fieldValue":"WLS-TV","totalCount":1},{"fieldValue":"WLWT","totalCount":1},{"fieldValue":"WLWT Cincinnati","totalCount":3},{"fieldValue":"WOODTV.com","totalCount":2},{"fieldValue":"WPBF West Palm Beach","totalCount":1},{"fieldValue":"WPTV News - FL Palm Beaches and Treasure Coast","totalCount":1},{"fieldValue":"WPVI-TV","totalCount":1},{"fieldValue":"WRAL.com","totalCount":1},{"fieldValue":"WSVN 7News | Miami News, Weather, Sports | Fort Lauderdale","totalCount":1},{"fieldValue":"WXYZ","totalCount":1},{"fieldValue":"Wall Street Journal","totalCount":2},{"fieldValue":"Washington Post","totalCount":1},{"fieldValue":"Wonderwall","totalCount":1},{"fieldValue":"Yahoo Entertainment","totalCount":1},{"fieldValue":"Yahoo Lifestyle","totalCount":5},{"fieldValue":"Yahoo News","totalCount":120},{"fieldValue":"Yahoo Sport Australia","totalCount":1},{"fieldValue":"Yale Climate Connections","totalCount":1},{"fieldValue":"bbc.com","totalCount":3},{"fieldValue":"cleveland.com","totalCount":1},{"fieldValue":"reuters.com","totalCount":3},{"fieldValue":"talkSPORT","totalCount":1},{"fieldValue":"vtdigger.org","totalCount":1}]},"allBlogPost":{"nodes":[{"id":"RedirectPost-def73c31-9e85-5d77-9a31-8f3f74d30f0a","excerpt":"","slug":"/redirect/?url=https%3A%2F%2Fnews.google.com%2F__i%2Frss%2Frd%2Farticles%2FCBMihAFodHRwczovL3d3dy51c2F0b2RheS5jb20vaW4tZGVwdGgvbmV3cy93b3JsZC8yMDIxLzA0LzMwL2luZGlhLWNvdmlkLTE5LWNyaXNpcy1veHlnZW4tc2NhcmNlLWJvZGllcy1idXJuaW5nLXRocm91Z2gtbmlnaHQvNzQxMDU4MzAwMi_SASdodHRwczovL2FtcC51c2F0b2RheS5jb20vYW1wLzc0MTA1ODMwMDI%3Foc%3D5","title":"'Apocalyptic' second wave of COVID-19 in India leaves families hunting for oxygen","date":"May 01, 2021","dateISO":"2021-05-01T05:48:37.665Z","datetime":"2021-05-01 05:48","tags":["USA TODAY"],"image":null,"imageAlt":null,"__typename":"SocialMediaPost","provider":"Google News","thirdPartyId":null,"url":"https://news.google.com/__i/rss/rd/articles/CBMihAFodHRwczovL3d3dy51c2F0b2RheS5jb20vaW4tZGVwdGgvbmV3cy93b3JsZC8yMDIxLzA0LzMwL2luZGlhLWNvdmlkLTE5LWNyaXNpcy1veHlnZW4tc2NhcmNlLWJvZGllcy1idXJuaW5nLXRocm91Z2gtbmlnaHQvNzQxMDU4MzAwMi_SASdodHRwczovL2FtcC51c2F0b2RheS5jb20vYW1wLzc0MTA1ODMwMDI?oc=5","originalUrl":"https://news.google.com/__i/rss/rd/articles/CBMihAFodHRwczovL3d3dy51c2F0b2RheS5jb20vaW4tZGVwdGgvbmV3cy93b3JsZC8yMDIxLzA0LzMwL2luZGlhLWNvdmlkLTE5LWNyaXNpcy1veHlnZW4tc2NhcmNlLWJvZGllcy1idXJuaW5nLXRocm91Z2gtbmlnaHQvNzQxMDU4MzAwMi_SASdodHRwczovL2FtcC51c2F0b2RheS5jb20vYW1wLzc0MTA1ODMwMDI?oc=5","imageRemote":null,"video":null,"channel":"USA TODAY","channelUrl":"","author":null,"authorUrl":null,"authorImageRemote":null,"authorImage":null,"authorSlug":null,"score":null,"views":null,"sharedCount":null,"likeCount":null,"sharedContent":null,"parent":{"localize":[{"title":"インドで発生したCOVID-19の第2波は「黙示録的」で、家族は酸素を求めていた","description":null,"locale":"ja"},{"title":"印度发生的第二波COVID-19 \"世界末日 \"让家人四处寻觅氧气","description":null,"locale":"zh"},{"title":"印度發生的第二波COVID-19 \"世界末日 \"讓家人四處尋覓氧氣","description":null,"locale":"zh-Hant"}]}},{"id":"RedirectPost-05689f4e-203e-54ed-8be1-b6d8f9da8d27","excerpt":"","slug":"/redirect/?url=https%3A%2F%2Fnews.google.com%2F__i%2Frss%2Frd%2Farticles%2FCBMiMmh0dHBzOi8vd3d3LmJiYy5jb20vbmV3cy93b3JsZC1hc2lhLWluZGlhLTU2OTEyOTc30gE2aHR0cHM6Ly93d3cuYmJjLmNvbS9uZXdzL3dvcmxkLWFzaWEtaW5kaWEtNTY5MTI5NzcuYW1w%3Foc%3D5","title":"India's Covid vaccine shortage: The desperate wait gets longer","date":"May 01, 2021","dateISO":"2021-05-01T05:29:28.528Z","datetime":"2021-05-01 05:29","tags":["BBC News"],"image":null,"imageAlt":null,"__typename":"SocialMediaPost","provider":"Google News","thirdPartyId":null,"url":"https://news.google.com/__i/rss/rd/articles/CBMiMmh0dHBzOi8vd3d3LmJiYy5jb20vbmV3cy93b3JsZC1hc2lhLWluZGlhLTU2OTEyOTc30gE2aHR0cHM6Ly93d3cuYmJjLmNvbS9uZXdzL3dvcmxkLWFzaWEtaW5kaWEtNTY5MTI5NzcuYW1w?oc=5","originalUrl":"https://news.google.com/__i/rss/rd/articles/CBMiMmh0dHBzOi8vd3d3LmJiYy5jb20vbmV3cy93b3JsZC1hc2lhLWluZGlhLTU2OTEyOTc30gE2aHR0cHM6Ly93d3cuYmJjLmNvbS9uZXdzL3dvcmxkLWFzaWEtaW5kaWEtNTY5MTI5NzcuYW1w?oc=5","imageRemote":"https://ichef.bbci.co.uk/news/1024/branded_news/10803/production/_118278576_gettyimages-1232183971.jpg","video":null,"channel":"BBC News","channelUrl":"","author":null,"authorUrl":null,"authorImageRemote":null,"authorImage":null,"authorSlug":null,"score":null,"views":null,"sharedCount":null,"likeCount":null,"sharedContent":null,"parent":{"localize":[{"title":"インドのCovidワクチンの不足。必死に待つ時間が長くなる","description":null,"locale":"ja"},{"title":"印度的科维德疫苗短缺。绝望的等待变得更加漫长","description":null,"locale":"zh"},{"title":"印度的科維德疫苗短缺。絕望的等待變得更加漫長","description":null,"locale":"zh-Hant"}]}},{"id":"RedirectPost-d3a8a16c-f888-53b8-a35d-153fc3d9205b","excerpt":"","slug":"/redirect/?url=https%3A%2F%2Fnews.google.com%2F__i%2Frss%2Frd%2Farticles%2FCBMiamh0dHBzOi8vd3d3LmJsb29tYmVyZy5jb20vbmV3cy9hcnRpY2xlcy8yMDIxLTA0LTMwL2JpZGVuLWJhbnMtdHJhdmVsLWZyb20taW5kaWEtYXMtY29yb25hdmlydXMtY2FzZXMtc3VyZ2XSAQA%3Foc%3D5","title":"Biden Bans Travel From India as Coronavirus Cases Surge","date":"May 01, 2021","dateISO":"2021-05-01T04:33:48.543Z","datetime":"2021-05-01 04:33","tags":["Bloomberg"],"image":null,"imageAlt":null,"__typename":"SocialMediaPost","provider":"Google News","thirdPartyId":null,"url":"https://news.google.com/__i/rss/rd/articles/CBMiamh0dHBzOi8vd3d3LmJsb29tYmVyZy5jb20vbmV3cy9hcnRpY2xlcy8yMDIxLTA0LTMwL2JpZGVuLWJhbnMtdHJhdmVsLWZyb20taW5kaWEtYXMtY29yb25hdmlydXMtY2FzZXMtc3VyZ2XSAQA?oc=5","originalUrl":"https://news.google.com/__i/rss/rd/articles/CBMiamh0dHBzOi8vd3d3LmJsb29tYmVyZy5jb20vbmV3cy9hcnRpY2xlcy8yMDIxLTA0LTMwL2JpZGVuLWJhbnMtdHJhdmVsLWZyb20taW5kaWEtYXMtY29yb25hdmlydXMtY2FzZXMtc3VyZ2XSAQA?oc=5","imageRemote":null,"video":null,"channel":"Bloomberg","channelUrl":"","author":null,"authorUrl":null,"authorImageRemote":null,"authorImage":null,"authorSlug":null,"score":null,"views":null,"sharedCount":null,"likeCount":null,"sharedContent":null,"parent":{"localize":[{"title":"バイデン氏、コロナウイルス感染者が急増するインドからの渡航を禁止","description":null,"locale":"ja"},{"title":"冠状病毒病例激增，拜登禁止从印度旅行","description":null,"locale":"zh"},{"title":"冠狀病毒病例激增，拜登禁止從印度旅行","description":null,"locale":"zh-Hant"}]}},{"id":"RedirectPost-ceeb75d0-f081-504d-a3e0-774644489fac","excerpt":"","slug":"/redirect/?url=https%3A%2F%2Fnews.google.com%2F__i%2Frss%2Frd%2Farticles%2FCBMiPmh0dHBzOi8vd3d3LmZveG5ld3MuY29tL3BvbGl0aWNzL2JpZGVuLWJhbnMtdHJhdmVsLWluZGlhLWNvdmlk0gFCaHR0cHM6Ly93d3cuZm94bmV3cy5jb20vcG9saXRpY3MvYmlkZW4tYmFucy10cmF2ZWwtaW5kaWEtY292aWQuYW1w%3Foc%3D5","title":"Biden bans travel from India amid COVID surge","date":"May 01, 2021","dateISO":"2021-05-01T03:36:44.147Z","datetime":"2021-05-01 03:36","tags":["Fox News"],"image":null,"imageAlt":null,"__typename":"SocialMediaPost","provider":"Google News","thirdPartyId":null,"url":"https://news.google.com/__i/rss/rd/articles/CBMiPmh0dHBzOi8vd3d3LmZveG5ld3MuY29tL3BvbGl0aWNzL2JpZGVuLWJhbnMtdHJhdmVsLWluZGlhLWNvdmlk0gFCaHR0cHM6Ly93d3cuZm94bmV3cy5jb20vcG9saXRpY3MvYmlkZW4tYmFucy10cmF2ZWwtaW5kaWEtY292aWQuYW1w?oc=5","originalUrl":"https://news.google.com/__i/rss/rd/articles/CBMiPmh0dHBzOi8vd3d3LmZveG5ld3MuY29tL3BvbGl0aWNzL2JpZGVuLWJhbnMtdHJhdmVsLWluZGlhLWNvdmlk0gFCaHR0cHM6Ly93d3cuZm94bmV3cy5jb20vcG9saXRpY3MvYmlkZW4tYmFucy10cmF2ZWwtaW5kaWEtY292aWQuYW1w?oc=5","imageRemote":"https://static.foxnews.com/foxnews.com/content/uploads/2021/04/Biden-CC.jpg","video":null,"channel":"Fox News","channelUrl":"","author":null,"authorUrl":null,"authorImageRemote":null,"authorImage":null,"authorSlug":null,"score":null,"views":null,"sharedCount":null,"likeCount":null,"sharedContent":null,"parent":{"localize":[{"title":"バイデン氏、COVIDの急増に伴いインドからの渡航を禁止","description":null,"locale":"ja"},{"title":"在COVID激增的情况下，拜登禁止从印度旅行","description":null,"locale":"zh"},{"title":"在COVID激增的情況下，拜登禁止從印度旅行","description":null,"locale":"zh-Hant"}]}},{"id":"RedirectPost-edd9eaf2-6bba-58a9-95cd-7f1682252460","excerpt":"","slug":"/redirect/?url=https%3A%2F%2Fnews.google.com%2F__i%2Frss%2Frd%2Farticles%2FCBMiUWh0dHBzOi8vd3d3Lndhc2hpbmd0b25wb3N0LmNvbS93b3JsZC8yMDIxLzA0LzMwL2luZGlhLWNvcm9uYXZpcnVzLXZhY2NpbmUtc3VwcGx5L9IBYGh0dHBzOi8vd3d3Lndhc2hpbmd0b25wb3N0LmNvbS93b3JsZC8yMDIxLzA0LzMwL2luZGlhLWNvcm9uYXZpcnVzLXZhY2NpbmUtc3VwcGx5Lz9vdXRwdXRUeXBlPWFtcA%3Foc%3D5","title":"India’s coronavirus surge creates vaccine supply turmoil far beyond its borders","date":"May 01, 2021","dateISO":"2021-05-01T03:36:44.147Z","datetime":"2021-05-01 03:36","tags":["The Washington Post"],"image":null,"imageAlt":null,"__typename":"SocialMediaPost","provider":"Google News","thirdPartyId":null,"url":"https://news.google.com/__i/rss/rd/articles/CBMiUWh0dHBzOi8vd3d3Lndhc2hpbmd0b25wb3N0LmNvbS93b3JsZC8yMDIxLzA0LzMwL2luZGlhLWNvcm9uYXZpcnVzLXZhY2NpbmUtc3VwcGx5L9IBYGh0dHBzOi8vd3d3Lndhc2hpbmd0b25wb3N0LmNvbS93b3JsZC8yMDIxLzA0LzMwL2luZGlhLWNvcm9uYXZpcnVzLXZhY2NpbmUtc3VwcGx5Lz9vdXRwdXRUeXBlPWFtcA?oc=5","originalUrl":"https://news.google.com/__i/rss/rd/articles/CBMiUWh0dHBzOi8vd3d3Lndhc2hpbmd0b25wb3N0LmNvbS93b3JsZC8yMDIxLzA0LzMwL2luZGlhLWNvcm9uYXZpcnVzLXZhY2NpbmUtc3VwcGx5L9IBYGh0dHBzOi8vd3d3Lndhc2hpbmd0b25wb3N0LmNvbS93b3JsZC8yMDIxLzA0LzMwL2luZGlhLWNvcm9uYXZpcnVzLXZhY2NpbmUtc3VwcGx5Lz9vdXRwdXRUeXBlPWFtcA?oc=5","imageRemote":"https://www.washingtonpost.com/wp-apps/imrs.php?src=https://arc-anglerfish-washpost-prod-washpost.s3.amazonaws.com/public/KVK4ZJVI6YI6XKFHL5C53TPTMQ.jpg&w=1440","video":null,"channel":"The Washington Post","channelUrl":"","author":null,"authorUrl":null,"authorImageRemote":null,"authorImage":null,"authorSlug":null,"score":null,"views":null,"sharedCount":null,"likeCount":null,"sharedContent":null,"parent":{"localize":[{"title":"インドにおけるコロナウイルスの急増は、国境を越えたワクチン供給の混乱を引き起こす","description":null,"locale":"ja"},{"title":"印度的冠状病毒激增造成疫苗供应混乱，远远超出其边界","description":null,"locale":"zh"},{"title":"印度的冠狀病毒激增造成疫苗供應混亂，遠遠超出其邊界","description":null,"locale":"zh-Hant"}]}},{"id":"RedirectPost-e0514a78-db77-535c-a52a-80841e863ffc","excerpt":"","slug":"/redirect/?url=https%3A%2F%2Fnews.google.com%2F__i%2Frss%2Frd%2Farticles%2FCBMiQ2h0dHBzOi8vd3d3Lm55dGltZXMuY29tL2FydGljbGUvaW5kaWEtY29yb25hdmlydXMtY2FzZXMtZGVhdGhzLmh0bWzSAUdodHRwczovL3d3dy5ueXRpbWVzLmNvbS9hcnRpY2xlL2luZGlhLWNvcm9uYXZpcnVzLWNhc2VzLWRlYXRocy5hbXAuaHRtbA%3Foc%3D5","title":"What We Know About India's Deadly Second Wave of Covid-19","date":"May 01, 2021","dateISO":"2021-05-01T03:02:52.314Z","datetime":"2021-05-01 03:02","tags":["The New York Times"],"image":null,"imageAlt":null,"__typename":"SocialMediaPost","provider":"Google News","thirdPartyId":null,"url":"https://news.google.com/__i/rss/rd/articles/CBMiQ2h0dHBzOi8vd3d3Lm55dGltZXMuY29tL2FydGljbGUvaW5kaWEtY29yb25hdmlydXMtY2FzZXMtZGVhdGhzLmh0bWzSAUdodHRwczovL3d3dy5ueXRpbWVzLmNvbS9hcnRpY2xlL2luZGlhLWNvcm9uYXZpcnVzLWNhc2VzLWRlYXRocy5hbXAuaHRtbA?oc=5","originalUrl":"https://news.google.com/__i/rss/rd/articles/CBMiQ2h0dHBzOi8vd3d3Lm55dGltZXMuY29tL2FydGljbGUvaW5kaWEtY29yb25hdmlydXMtY2FzZXMtZGVhdGhzLmh0bWzSAUdodHRwczovL3d3dy5ueXRpbWVzLmNvbS9hcnRpY2xlL2luZGlhLWNvcm9uYXZpcnVzLWNhc2VzLWRlYXRocy5hbXAuaHRtbA?oc=5","imageRemote":"https://static01.nyt.com/images/2021/04/29/world/00virus-india-seo-explainer-1/00virus-india-seo-explainer-1-facebookJumbo.jpg","video":null,"channel":"The New York Times","channelUrl":"","author":null,"authorUrl":null,"authorImageRemote":null,"authorImage":null,"authorSlug":null,"score":null,"views":null,"sharedCount":null,"likeCount":null,"sharedContent":null,"parent":{"localize":[{"title":"インドで発生した「コヴィド-19」の第二波についての情報","description":null,"locale":"ja"},{"title":"我们对印度致命的第二波Covid-19的了解","description":null,"locale":"zh"},{"title":"我們對印度致命的第二波Covid-19的瞭解","description":null,"locale":"zh-Hant"}]}},{"id":"RedirectPost-8a02c187-b569-5782-bea2-f6c84a33db8a","excerpt":"","slug":"/redirect/?url=https%3A%2F%2Fnews.google.com%2F__i%2Frss%2Frd%2Farticles%2FCBMiXmh0dHBzOi8vd3d3LmF4aW9zLmNvbS93aGl0ZS1ob3VzZS10cmF2ZWwtaW5kaWEtY292aWQtZDNmYjkzYjUtZDQ5Yi00MjNhLWE0NDQtNWIxNzI0MzI0ZjQxLmh0bWzSAV5odHRwczovL3d3dy5heGlvcy5jb20vd2hpdGUtaG91c2UtdHJhdmVsLWluZGlhLWNvdmlkLWQzZmI5M2I1LWQ0OWItNDIzYS1hNDQ0LTViMTcyNDMyNGY0MS5odG1s%3Foc%3D5","title":"White House to restrict travel from India","date":"May 01, 2021","dateISO":"2021-05-01T03:02:52.314Z","datetime":"2021-05-01 03:02","tags":["Axios"],"image":null,"imageAlt":null,"__typename":"SocialMediaPost","provider":"Google News","thirdPartyId":null,"url":"https://news.google.com/__i/rss/rd/articles/CBMiXmh0dHBzOi8vd3d3LmF4aW9zLmNvbS93aGl0ZS1ob3VzZS10cmF2ZWwtaW5kaWEtY292aWQtZDNmYjkzYjUtZDQ5Yi00MjNhLWE0NDQtNWIxNzI0MzI0ZjQxLmh0bWzSAV5odHRwczovL3d3dy5heGlvcy5jb20vd2hpdGUtaG91c2UtdHJhdmVsLWluZGlhLWNvdmlkLWQzZmI5M2I1LWQ0OWItNDIzYS1hNDQ0LTViMTcyNDMyNGY0MS5odG1s?oc=5","originalUrl":"https://news.google.com/__i/rss/rd/articles/CBMiXmh0dHBzOi8vd3d3LmF4aW9zLmNvbS93aGl0ZS1ob3VzZS10cmF2ZWwtaW5kaWEtY292aWQtZDNmYjkzYjUtZDQ5Yi00MjNhLWE0NDQtNWIxNzI0MzI0ZjQxLmh0bWzSAV5odHRwczovL3d3dy5heGlvcy5jb20vd2hpdGUtaG91c2UtdHJhdmVsLWluZGlhLWNvdmlkLWQzZmI5M2I1LWQ0OWItNDIzYS1hNDQ0LTViMTcyNDMyNGY0MS5odG1s?oc=5","imageRemote":"https://images.axios.com/FvI4zEQ0bFw5exSO-hMqBZUf7f0=/0x144:5184x3060/1366x768/2021/04/30/1619807661853.jpg","video":null,"channel":"Axios","channelUrl":"","author":null,"authorUrl":null,"authorImageRemote":null,"authorImage":null,"authorSlug":null,"score":null,"views":null,"sharedCount":null,"likeCount":null,"sharedContent":null,"parent":{"localize":[{"title":"ホワイトハウス、インドからの渡航を制限","description":null,"locale":"ja"},{"title":"白宫将限制来自印度的旅行","description":null,"locale":"zh"},{"title":"白宮將限制來自印度的旅行","description":null,"locale":"zh-Hant"}]}},{"id":"RedirectPost-e7ea3184-d7c7-5e40-98b4-070780e2f872","excerpt":"","slug":"/redirect/?url=https%3A%2F%2Fnews.google.com%2F__i%2Frss%2Frd%2Farticles%2FCBMiMWh0dHBzOi8vd3d3LmJiYy5jb20vbmV3cy93b3JsZC1hdXN0cmFsaWEtNTY5NTMwNTLSATVodHRwczovL3d3dy5iYmMuY29tL25ld3Mvd29ybGQtYXVzdHJhbGlhLTU2OTUzMDUyLmFtcA%3Foc%3D5","title":"Covid: Australians could face jail or fines if they return from India","date":"May 01, 2021","dateISO":"2021-05-01T02:29:34.501Z","datetime":"2021-05-01 02:29","tags":["BBC News"],"image":null,"imageAlt":null,"__typename":"SocialMediaPost","provider":"Google News","thirdPartyId":null,"url":"https://news.google.com/__i/rss/rd/articles/CBMiMWh0dHBzOi8vd3d3LmJiYy5jb20vbmV3cy93b3JsZC1hdXN0cmFsaWEtNTY5NTMwNTLSATVodHRwczovL3d3dy5iYmMuY29tL25ld3Mvd29ybGQtYXVzdHJhbGlhLTU2OTUzMDUyLmFtcA?oc=5","originalUrl":"https://news.google.com/__i/rss/rd/articles/CBMiMWh0dHBzOi8vd3d3LmJiYy5jb20vbmV3cy93b3JsZC1hdXN0cmFsaWEtNTY5NTMwNTLSATVodHRwczovL3d3dy5iYmMuY29tL25ld3Mvd29ybGQtYXVzdHJhbGlhLTU2OTUzMDUyLmFtcA?oc=5","imageRemote":"https://ichef.bbci.co.uk/news/1024/branded_news/79CA/production/_118287113_indiaozgetty.jpg","video":null,"channel":"BBC News","channelUrl":"","author":null,"authorUrl":null,"authorImageRemote":null,"authorImage":null,"authorSlug":null,"score":null,"views":null,"sharedCount":null,"likeCount":null,"sharedContent":null,"parent":{"localize":[{"title":"Covid: オーストラリア人がインドから帰国した場合、懲罰や罰金を受ける可能性がある。","description":null,"locale":"ja"},{"title":"科维德：澳大利亚人如果从印度回国可能面临监禁或罚款","description":null,"locale":"zh"},{"title":"科維德：澳大利亞人如果從印度回國可能面臨監禁或罰款","description":null,"locale":"zh-Hant"}]}},{"id":"RedirectPost-ac7a3f92-f25c-5bd3-b04e-d458eba7a39c","excerpt":"","slug":"/redirect/?url=https%3A%2F%2Fnews.google.com%2F__i%2Frss%2Frd%2Farticles%2FCBMiZWh0dHBzOi8vd3d3LmtjcmEuY29tL2FydGljbGUvcml0ZS1haWQtbWFrZXMtY292aWQtMTktdmFjY2luZXMtYWxsLWxvY2F0aW9ucy13YWxrLWlucy13ZWxjb21lLzM2MzAyMTMw0gEA%3Foc%3D5","title":"Rite Aid makes COVID-19 vaccines available at all locations, walk-ins welcome","date":"May 01, 2021","dateISO":"2021-05-01T01:22:01.551Z","datetime":"2021-05-01 01:22","tags":["KCRA Sacramento"],"image":null,"imageAlt":null,"__typename":"SocialMediaPost","provider":"Google News","thirdPartyId":null,"url":"https://news.google.com/__i/rss/rd/articles/CBMiZWh0dHBzOi8vd3d3LmtjcmEuY29tL2FydGljbGUvcml0ZS1haWQtbWFrZXMtY292aWQtMTktdmFjY2luZXMtYWxsLWxvY2F0aW9ucy13YWxrLWlucy13ZWxjb21lLzM2MzAyMTMw0gEA?oc=5","originalUrl":"https://news.google.com/__i/rss/rd/articles/CBMiZWh0dHBzOi8vd3d3LmtjcmEuY29tL2FydGljbGUvcml0ZS1haWQtbWFrZXMtY292aWQtMTktdmFjY2luZXMtYWxsLWxvY2F0aW9ucy13YWxrLWlucy13ZWxjb21lLzM2MzAyMTMw0gEA?oc=5","imageRemote":"https://kubrick.htvapps.com/vidthumb/8185985f-5c38-42a9-abff-56090daf11f3/8185985f-5c38-42a9-abff-56090daf11f3_image.jpg?crop=0.752xw:0.752xh;0.131xw,0.0285xh&resize=1200:*","video":null,"channel":"KCRA Sacramento","channelUrl":"","author":null,"authorUrl":null,"authorImageRemote":null,"authorImage":null,"authorSlug":null,"score":null,"views":null,"sharedCount":null,"likeCount":null,"sharedContent":null,"parent":{"localize":[{"title":"Rite Aid、COVID-19ワクチンを全店で販売、ウォークインも可能に","description":null,"locale":"ja"},{"title":"礼德公司在所有地点提供COVID-19疫苗，欢迎步行进入","description":null,"locale":"zh"},{"title":"禮德公司在所有地點提供COVID-19疫苗，歡迎步行進入","description":null,"locale":"zh-Hant"}]}},{"id":"RedirectPost-f98dba4c-6e80-536f-9757-29c0aa5319fc","excerpt":"","slug":"/redirect/?url=https%3A%2F%2Fnews.google.com%2F__i%2Frss%2Frd%2Farticles%2FCBMiTWh0dHBzOi8vbmV3cy55YWhvby5jb20vYmlkZW4tY2FsbHMtbmV0YW55YWh1LW9mZmVyLWNvbmRvbGVuY2VzLTE2MzEwOTY2Ny5odG1s0gFVaHR0cHM6Ly9uZXdzLnlhaG9vLmNvbS9hbXBodG1sL2JpZGVuLWNhbGxzLW5ldGFueWFodS1vZmZlci1jb25kb2xlbmNlcy0xNjMxMDk2NjcuaHRtbA%3Foc%3D5","title":"Biden calls Netanyahu to offer condolences over Mount Meron stampede","date":"May 01, 2021","dateISO":"2021-05-01T01:22:01.550Z","datetime":"2021-05-01 01:22","tags":["Yahoo News"],"image":null,"imageAlt":null,"__typename":"SocialMediaPost","provider":"Google News","thirdPartyId":null,"url":"https://news.google.com/__i/rss/rd/articles/CBMiTWh0dHBzOi8vbmV3cy55YWhvby5jb20vYmlkZW4tY2FsbHMtbmV0YW55YWh1LW9mZmVyLWNvbmRvbGVuY2VzLTE2MzEwOTY2Ny5odG1s0gFVaHR0cHM6Ly9uZXdzLnlhaG9vLmNvbS9hbXBodG1sL2JpZGVuLWNhbGxzLW5ldGFueWFodS1vZmZlci1jb25kb2xlbmNlcy0xNjMxMDk2NjcuaHRtbA?oc=5","originalUrl":"https://news.google.com/__i/rss/rd/articles/CBMiTWh0dHBzOi8vbmV3cy55YWhvby5jb20vYmlkZW4tY2FsbHMtbmV0YW55YWh1LW9mZmVyLWNvbmRvbGVuY2VzLTE2MzEwOTY2Ny5odG1s0gFVaHR0cHM6Ly9uZXdzLnlhaG9vLmNvbS9hbXBodG1sL2JpZGVuLWNhbGxzLW5ldGFueWFodS1vZmZlci1jb25kb2xlbmNlcy0xNjMxMDk2NjcuaHRtbA?oc=5","imageRemote":"https://s.yimg.com/uu/api/res/1.2/8Kg4SS5Hs0KqnIF9vtNX.g--~B/aD03MjA7dz0xMjgwO2FwcGlkPXl0YWNoeW9u/https://media.zenfs.com/en/axios_articles_623/207c0c2911e95519ff372f0df2e13bc9","video":null,"channel":"Yahoo News","channelUrl":"","author":null,"authorUrl":null,"authorImageRemote":null,"authorImage":null,"authorSlug":null,"score":null,"views":null,"sharedCount":null,"likeCount":null,"sharedContent":null,"parent":{"localize":[{"title":"バイデン氏、ネタニヤフ首相に電話をかけ、メロン山での暴走事故に哀悼の意を表す","description":null,"locale":"ja"},{"title":"拜登致电内塔尼亚胡，对梅隆山踩踏事件表示慰问","description":null,"locale":"zh"},{"title":"拜登致電內塔尼亞胡，對梅隆山踩踏事件表示慰問","description":null,"locale":"zh-Hant"}]}},{"id":"RedirectPost-f2e1cb38-e5d0-586b-9be3-08c37c08c7ee","excerpt":"","slug":"/redirect/?url=https%3A%2F%2Fnews.google.com%2F__i%2Frss%2Frd%2Farticles%2FCBMieGh0dHBzOi8vd3d3LmNuYmMuY29tLzIwMjEvMDQvMzAvaW5kaWEtdHJhdmVsLXJlc3RyaWN0aW9ucy1kci1zY290dC1nb3R0bGllYi1leHBlY3RzLWxpdHRsZS1pbXBhY3Qtb24tdXMtY292aWQtY2FzZXMuaHRtbNIBfGh0dHBzOi8vd3d3LmNuYmMuY29tL2FtcC8yMDIxLzA0LzMwL2luZGlhLXRyYXZlbC1yZXN0cmljdGlvbnMtZHItc2NvdHQtZ290dGxpZWItZXhwZWN0cy1saXR0bGUtaW1wYWN0LW9uLXVzLWNvdmlkLWNhc2VzLmh0bWw%3Foc%3D5","title":"Dr. Scott Gottlieb says travel restrictions on India will have little impact on U.S. Covid cases","date":"May 01, 2021","dateISO":"2021-05-01T01:22:01.550Z","datetime":"2021-05-01 01:22","tags":["CNBC"],"image":null,"imageAlt":null,"__typename":"SocialMediaPost","provider":"Google News","thirdPartyId":null,"url":"https://news.google.com/__i/rss/rd/articles/CBMieGh0dHBzOi8vd3d3LmNuYmMuY29tLzIwMjEvMDQvMzAvaW5kaWEtdHJhdmVsLXJlc3RyaWN0aW9ucy1kci1zY290dC1nb3R0bGllYi1leHBlY3RzLWxpdHRsZS1pbXBhY3Qtb24tdXMtY292aWQtY2FzZXMuaHRtbNIBfGh0dHBzOi8vd3d3LmNuYmMuY29tL2FtcC8yMDIxLzA0LzMwL2luZGlhLXRyYXZlbC1yZXN0cmljdGlvbnMtZHItc2NvdHQtZ290dGxpZWItZXhwZWN0cy1saXR0bGUtaW1wYWN0LW9uLXVzLWNvdmlkLWNhc2VzLmh0bWw?oc=5","originalUrl":"https://news.google.com/__i/rss/rd/articles/CBMieGh0dHBzOi8vd3d3LmNuYmMuY29tLzIwMjEvMDQvMzAvaW5kaWEtdHJhdmVsLXJlc3RyaWN0aW9ucy1kci1zY290dC1nb3R0bGllYi1leHBlY3RzLWxpdHRsZS1pbXBhY3Qtb24tdXMtY292aWQtY2FzZXMuaHRtbNIBfGh0dHBzOi8vd3d3LmNuYmMuY29tL2FtcC8yMDIxLzA0LzMwL2luZGlhLXRyYXZlbC1yZXN0cmljdGlvbnMtZHItc2NvdHQtZ290dGxpZWItZXhwZWN0cy1saXR0bGUtaW1wYWN0LW9uLXVzLWNvdmlkLWNhc2VzLmh0bWw?oc=5","imageRemote":"https://image.cnbcfm.com/api/v1/image/105217773-RTX348FI.jpg?v=1619815355","video":null,"channel":"CNBC","channelUrl":"","author":null,"authorUrl":null,"authorImageRemote":null,"authorImage":null,"authorSlug":null,"score":null,"views":null,"sharedCount":null,"likeCount":null,"sharedContent":null,"parent":{"localize":[{"title":"スコット・ゴットリーブ博士、インドへの渡航制限は米国のCovid症例への影響は少ないと発表","description":null,"locale":"ja"},{"title":"斯科特-戈特利布博士说，对印度的旅行限制对美国的科威德病例影响不大。","description":null,"locale":"zh"},{"title":"斯科特-戈特利布博士說，對印度的旅行限制對美國的科威德病例影響不大。","description":null,"locale":"zh-Hant"}]}}]}},"pageContext":{"basePath":"/","pageType":"home","tagsFilter":{"date":{"gt":"2000-12-25T10:54:58.000Z"}},"filter":{"date":{"gt":"2000-12-25T10:54:58.000Z"}},"limit":50,"skip":2550,"totalPages":52,"total":2561,"currentPage":52,"maxWidth":1024,"maxHeight":512,"siteMetadata":null,"locale":"en","hrefLang":"en-US","originalPath":"/page/52","dateFormat":"MM/DD/YYYY"}},"staticQueryHashes":["1239077767","2744905544","3025052997","3280999885"]}